checkpoint1
…
Neste checkpoint escolhi quatro sries: Sherlock, Flash, Gotham e How to Get Away with Murder. Inicialmente, listarei suas informaes: Nome, season, episdio de cada temporada e sua avaliao. Escolhi essas sries pois tem uma quantidade de temporada no varia muito.

series <- all_series %>% 
  filter(series_name %in% c("Gotham", "Sherlock", "Flash", "How to Get Away with Murder")) %>%
  group_by(series_name) %>% 
  select(season, season_ep, UserRating)

## Adding missing grouping variables: `series_name`

series

## Source: local data frame [190 x 4]
## Groups: series_name [4]
## 
## # A tibble: 190 x 4
##                    series_name season season_ep UserRating
##                          <chr>  <int>     <int>      <dbl>
##  1 How to Get Away with Murder      1         1        8.6
##  2 How to Get Away with Murder      1         2        8.3
##  3 How to Get Away with Murder      1         3        8.2
##  4 How to Get Away with Murder      1         4        8.7
##  5 How to Get Away with Murder      1         5        8.4
##  6 How to Get Away with Murder      1         6        8.6
##  7 How to Get Away with Murder      1         7        8.3
##  8 How to Get Away with Murder      1         8        8.6
##  9 How to Get Away with Murder      1         9        9.4
## 10 How to Get Away with Murder      1        10        8.8
## # ... with 180 more rows
…
